Conversor5bitspara6bits/simulation/qsim/Conversor5bitspara6bits.msim.vcd
$comment
	File created using the following command:
		vcd file Conversor5bitspara6bits.msim.vcd -direction
$end
$date
	Wed Oct 29 03:45:44 2025
$end
$version
	ModelSim Version 2020.1
$end
$timescale
	1ps
$end

$scope module Conversor5bitspara6bits_vlg_vec_tst $end
$var reg 1 ! IN0 $end
$var reg 1 " IN1 $end
$var reg 1 # IN2 $end
$var reg 1 $ IN3 $end
$var reg 1 % Sinal $end
$var wire 1 & OUT [5] $end
$var wire 1 ' OUT [4] $end
$var wire 1 ( OUT [3] $end
$var wire 1 ) OUT [2] $end
$var wire 1 * OUT [1] $end
$var wire 1 + OUT [0] $end

$scope module i1 $end
$var wire 1 , gnd $end
$var wire 1 - vcc $end
$var wire 1 . unknown $end
$var tri1 1 / devclrn $end
$var tri1 1 0 devpor $end
$var tri1 1 1 devoe $end
$var wire 1 2 OUT[5]~output_o $end
$var wire 1 3 OUT[4]~output_o $end
$var wire 1 4 OUT[3]~output_o $end
$var wire 1 5 OUT[2]~output_o $end
$var wire 1 6 OUT[1]~output_o $end
$var wire 1 7 OUT[0]~output_o $end
$var wire 1 8 IN3~input_o $end
$var wire 1 9 Sinal~input_o $end
$var wire 1 : IN1~input_o $end
$var wire 1 ; IN2~input_o $end
$var wire 1 < IN0~input_o $end
$var wire 1 = inst|inst10|inst2~combout $end
$var wire 1 > inst3|inst50~0_combout $end
$var wire 1 ? inst3|inst14~0_combout $end
$var wire 1 @ inst3|inst13~0_combout $end
$var wire 1 A inst3|inst12~0_combout $end
$upscope $end
$upscope $end
$enddefinitions $end
#0
$dumpvars
0!
0"
0#
0$
0%
0+
0*
0)
0(
0'
0&
0,
1-
x.
1/
10
11
02
03
04
05
06
07
08
09
0:
0;
0<
0=
0>
0?
0@
0A
$end
#30000
1%
19
#60000
1!
0%
09
1<
17
1=
1+
#90000
1%
19
1A
1@
1?
1>
12
13
14
15
16
1*
1)
1(
1'
1&
#120000
1"
0!
0%
1:
09
0<
07
0+
0@
0?
0>
02
03
04
05
0)
0(
0'
0&
#150000
1%
19
1@
1?
1>
12
13
14
15
1)
1(
1'
1&
#180000
1#
1!
0%
1;
09
1<
17
1+
0?
0>
02
03
04
0(
0'
0&
#210000
1%
19
0A
0@
1?
1>
12
13
14
05
06
0*
0)
1(
1'
1&
#240000
1$
0"
0!
0%
18
0:
09
0<
07
0+
0>
1@
15
02
03
0'
0&
1)
#270000
1%
19
0?
1>
12
13
04
0(
1'
1&
#300000
1!
0%
09
1<
17
1+
1?
0>
02
03
14
1(
0'
0&
#330000
1%
19
1A
0@
0?
1>
12
13
04
05
16
1*
0)
0(
1'
1&
#360000
0#
1"
0!
0%
0;
1:
09
0<
07
0+
1?
0>
02
03
14
1(
0'
0&
#390000
1%
19
1@
0?
1>
12
13
04
15
1)
0(
1'
1&
#420000
1!
0%
09
1<
17
1+
0@
1?
0>
02
03
14
05
0)
1(
0'
0&
#450000
1%
19
0A
1@
0?
1>
12
13
04
15
06
0*
1)
0(
1'
1&
#480000
0$
0"
0!
0%
08
0:
09
0<
07
0=
0+
0>
0@
05
02
03
0'
0&
0)
#510000
1%
19
#540000
1#
1!
0%
1;
09
1<
17
1=
1+
1@
15
1)
#570000
1%
19
1A
0@
1?
1>
12
13
14
05
16
1*
0)
1(
1'
1&
#600000
1"
0!
0%
1:
09
0<
07
0+
1@
0?
0>
02
03
04
15
1)
0(
0'
0&
#630000
1%
19
0@
1?
1>
12
13
14
05
0)
1(
1'
1&
#660000
1!
0%
09
1<
17
1+
1@
0?
0>
02
03
04
15
1)
0(
0'
0&
#690000
1%
19
0A
0@
1?
1>
12
13
14
05
06
0*
0)
1(
1'
1&
#720000
1$
0#
0"
0!
0%
18
0;
0:
09
0<
07
0=
0+
0>
02
03
0'
0&
#750000
1%
19
1>
12
13
1'
1&
#780000
1!
0%
09
1<
17
1=
1+
0>
02
03
0'
0&
#810000
1%
19
1A
1@
0?
1>
12
13
04
15
16
1*
1)
0(
1'
1&
#840000
1"
0!
0%
1:
09
0<
07
0+
0@
1?
0>
02
03
14
05
0)
1(
0'
0&
#870000
1%
19
1@
0?
1>
12
13
04
15
1)
0(
1'
1&
#900000
1#
1!
0%
1;
09
1<
17
1+
1?
0>
02
03
14
1(
0'
0&
#930000
1%
19
0A
0@
0?
1>
12
13
04
05
06
0*
0)
0(
1'
1&
#960000
0$
0"
0!
0%
08
0:
09
0<
07
0+
0>
1@
15
02
03
0'
0&
1)
#990000
1%
19
1?
1>
12
13
14
1(
1'
1&
