Descomplementador/simulation/qsim/Descomplementador.msim.vcd
$comment
	File created using the following command:
		vcd file Descomplementador.msim.vcd -direction
$end
$date
	Wed Oct 29 15:29:56 2025
$end
$version
	ModelSim Version 2020.1
$end
$timescale
	1ps
$end

$scope module Descomplementador_vlg_vec_tst $end
$var reg 6 ! IN [5:0] $end
$var wire 1 " OUT [5] $end
$var wire 1 # OUT [4] $end
$var wire 1 $ OUT [3] $end
$var wire 1 % OUT [2] $end
$var wire 1 & OUT [1] $end
$var wire 1 ' OUT [0] $end

$scope module i1 $end
$var wire 1 ( gnd $end
$var wire 1 ) vcc $end
$var wire 1 * unknown $end
$var tri1 1 + devclrn $end
$var tri1 1 , devpor $end
$var tri1 1 - devoe $end
$var wire 1 . OUT[5]~output_o $end
$var wire 1 / OUT[4]~output_o $end
$var wire 1 0 OUT[3]~output_o $end
$var wire 1 1 OUT[2]~output_o $end
$var wire 1 2 OUT[1]~output_o $end
$var wire 1 3 OUT[0]~output_o $end
$var wire 1 4 IN[5]~input_o $end
$var wire 1 5 IN[4]~input_o $end
$var wire 1 6 IN[2]~input_o $end
$var wire 1 7 IN[1]~input_o $end
$var wire 1 8 IN[0]~input_o $end
$var wire 1 9 inst|inst10|inst2~combout $end
$var wire 1 : IN[3]~input_o $end
$var wire 1 ; inst3|inst15~0_combout $end
$var wire 1 < inst3|inst14~0_combout $end
$var wire 1 = inst3|inst13~0_combout $end
$var wire 1 > inst3|inst12~0_combout $end
$upscope $end
$upscope $end
$enddefinitions $end
#0
$dumpvars
b0 !
0'
0&
0%
0$
0#
0"
0(
1)
x*
1+
1,
1-
0.
0/
00
01
02
03
04
05
06
07
08
09
0:
0;
0<
0=
0>
$end
#30000
b100000 !
14
1.
1"
#60000
b110000 !
b10000 !
15
04
0.
0"
1;
1/
1#
#90000
b110000 !
14
1.
1"
#120000
b111000 !
b101000 !
b1000 !
1:
05
04
0.
0"
1<
0;
0/
10
1$
0#
#150000
b101000 !
14
1.
1"
1;
1/
1#
#180000
b111000 !
b11000 !
15
04
0.
0"
#210000
b111000 !
14
1.
1"
0;
0/
0#
#240000
b111100 !
b110100 !
b100100 !
b100 !
16
0:
05
04
0.
19
0"
1=
0<
00
11
1%
0$
#270000
b100100 !
14
1.
1"
1<
1;
1/
10
1$
1#
#300000
b110100 !
b10100 !
15
04
0.
0"
0<
00
0$
#330000
b110100 !
14
1.
1"
1<
0;
0/
10
1$
0#
#360000
b111100 !
b101100 !
b1100 !
1:
05
04
0.
0"
#390000
b101100 !
14
1.
1"
0<
1;
1/
00
0$
1#
#420000
b111100 !
b11100 !
15
04
0.
0"
1<
10
1$
#450000
b111100 !
14
1.
1"
0<
0;
0/
00
0$
0#
#480000
b111110 !
b111010 !
b110010 !
b100010 !
b10 !
17
06
0:
05
04
0.
0"
1>
0=
01
12
1&
0%
#510000
b100010 !
14
1.
1"
1=
1<
1;
1/
10
11
1%
1$
1#
#540000
b110010 !
b10010 !
15
04
0.
0"
0=
0<
00
01
0%
0$
#570000
b110010 !
14
1.
1"
1=
1<
0;
0/
10
11
1%
1$
0#
#600000
b111010 !
b101010 !
b1010 !
1:
05
04
0.
0"
0=
01
0%
#630000
b101010 !
14
1.
1"
1=
0<
1;
1/
00
11
1%
0$
1#
#660000
b111010 !
b11010 !
15
04
0.
0"
0=
1<
10
01
0%
1$
#690000
b111010 !
14
1.
1"
1=
0<
0;
0/
00
11
1%
0$
0#
#720000
b111110 !
b110110 !
b100110 !
b110 !
16
0:
05
04
0.
0"
#750000
b100110 !
14
1.
1"
0=
1<
1;
1/
10
01
0%
1$
1#
#780000
b110110 !
b10110 !
15
04
0.
0"
1=
0<
00
11
1%
0$
#810000
b110110 !
14
1.
1"
0=
1<
0;
0/
10
01
0%
1$
0#
#840000
b111110 !
b101110 !
b1110 !
1:
05
04
0.
0"
1=
11
1%
#870000
b101110 !
14
1.
1"
0=
0<
1;
1/
00
01
0%
0$
1#
#900000
b111110 !
b11110 !
15
04
0.
0"
1=
1<
10
11
1%
1$
#930000
b111110 !
14
1.
1"
0=
0<
0;
0/
00
01
0%
0$
0#
#960000
b111111 !
b111101 !
b111001 !
b110001 !
b100001 !
b1 !
07
06
0:
05
18
04
0.
13
1'
0"
0>
02
0&
#990000
b100001 !
14
1.
1"
1>
1=
1<
1;
1/
10
11
12
1&
1%
1$
1#
