UnidadeAritmetica/simulation/qsim/UnidadeAritmetica.msim.vcd
$comment
	File created using the following command:
		vcd file UnidadeAritmetica.msim.vcd -direction
$end
$date
	Wed Oct 29 16:14:04 2025
$end
$version
	ModelSim Version 2020.1
$end
$timescale
	1ps
$end

$scope module UnidadeAritmetica_vlg_vec_tst $end
$var reg 6 ! A [5:0] $end
$var reg 6 " B [5:0] $end
$var wire 1 # C2deB [5] $end
$var wire 1 $ C2deB [4] $end
$var wire 1 % C2deB [3] $end
$var wire 1 & C2deB [2] $end
$var wire 1 ' C2deB [1] $end
$var wire 1 ( C2deB [0] $end
$var wire 1 ) Soma [5] $end
$var wire 1 * Soma [4] $end
$var wire 1 + Soma [3] $end
$var wire 1 , Soma [2] $end
$var wire 1 - Soma [1] $end
$var wire 1 . Soma [0] $end
$var wire 1 / Subtracao [5] $end
$var wire 1 0 Subtracao [4] $end
$var wire 1 1 Subtracao [3] $end
$var wire 1 2 Subtracao [2] $end
$var wire 1 3 Subtracao [1] $end
$var wire 1 4 Subtracao [0] $end

$scope module i1 $end
$var wire 1 5 gnd $end
$var wire 1 6 vcc $end
$var wire 1 7 unknown $end
$var tri1 1 8 devclrn $end
$var tri1 1 9 devpor $end
$var tri1 1 : devoe $end
$var wire 1 ; C2deB[5]~output_o $end
$var wire 1 < C2deB[4]~output_o $end
$var wire 1 = C2deB[3]~output_o $end
$var wire 1 > C2deB[2]~output_o $end
$var wire 1 ? C2deB[1]~output_o $end
$var wire 1 @ C2deB[0]~output_o $end
$var wire 1 A Soma[5]~output_o $end
$var wire 1 B Soma[4]~output_o $end
$var wire 1 C Soma[3]~output_o $end
$var wire 1 D Soma[2]~output_o $end
$var wire 1 E Soma[1]~output_o $end
$var wire 1 F Soma[0]~output_o $end
$var wire 1 G Subtracao[5]~output_o $end
$var wire 1 H Subtracao[4]~output_o $end
$var wire 1 I Subtracao[3]~output_o $end
$var wire 1 J Subtracao[2]~output_o $end
$var wire 1 K Subtracao[1]~output_o $end
$var wire 1 L Subtracao[0]~output_o $end
$var wire 1 M B[3]~input_o $end
$var wire 1 N B[2]~input_o $end
$var wire 1 O B[0]~input_o $end
$var wire 1 P B[1]~input_o $end
$var wire 1 Q inst77|inst12|inst2~combout $end
$var wire 1 R B[5]~input_o $end
$var wire 1 S B[4]~input_o $end
$var wire 1 T inst77|inst11|inst1~0_combout $end
$var wire 1 U inst77|inst9|inst1~0_combout $end
$var wire 1 V inst77|inst12|inst1~0_combout $end
$var wire 1 W inst77|inst10|inst1~0_combout $end
$var wire 1 X inst77|inst8|inst1~combout $end
$var wire 1 Y A[4]~input_o $end
$var wire 1 Z A[3]~input_o $end
$var wire 1 [ A[1]~input_o $end
$var wire 1 \ A[0]~input_o $end
$var wire 1 ] inst|inst2|inst3~0_combout $end
$var wire 1 ^ A[2]~input_o $end
$var wire 1 _ inst|inst3|inst3~0_combout $end
$var wire 1 ` inst|inst4|inst3~0_combout $end
$var wire 1 a A[5]~input_o $end
$var wire 1 b inst|inst6|inst1~0_combout $end
$var wire 1 c inst|inst6|inst1~combout $end
$var wire 1 d inst|inst4|inst1~combout $end
$var wire 1 e inst|inst3|inst1~0_combout $end
$var wire 1 f inst1|inst|inst8|inst2~combout $end
$var wire 1 g inst1|inst3|inst15~0_combout $end
$var wire 1 h inst1|inst3|inst15~1_combout $end
$var wire 1 i inst1|inst3|inst14~0_combout $end
$var wire 1 j inst1|inst3|inst13~0_combout $end
$var wire 1 k inst|inst2|inst1~0_combout $end
$var wire 1 l inst1|inst3|inst12~0_combout $end
$var wire 1 m inst|inst|inst~combout $end
$var wire 1 n inst77|inst10|inst2~combout $end
$var wire 1 o inst99|inst|inst2|inst3~0_combout $end
$var wire 1 p inst99|inst1|inst8|inst2~combout $end
$var wire 1 q inst99|inst|inst3|inst3~0_combout $end
$var wire 1 r inst99|inst|inst4|inst3~0_combout $end
$var wire 1 s inst99|inst|inst5|inst3~0_combout $end
$var wire 1 t inst99|inst|inst6|inst1~combout $end
$var wire 1 u inst99|inst|inst4|inst1~combout $end
$var wire 1 v inst2|inst3|inst15~0_combout $end
$var wire 1 w inst2|inst|inst8|inst2~combout $end
$var wire 1 x inst2|inst|inst10|inst2~combout $end
$var wire 1 y inst2|inst3|inst15~1_combout $end
$var wire 1 z inst2|inst3|inst14~0_combout $end
$var wire 1 { inst99|inst|inst3|inst1~combout $end
$var wire 1 | inst2|inst3|inst13~0_combout $end
$var wire 1 } inst2|inst3|inst12~0_combout $end
$upscope $end
$upscope $end
$enddefinitions $end
#0
$dumpvars
b0 !
b0 "
0(
0'
0&
0%
0$
0#
0.
0-
0,
0+
0*
0)
04
03
02
01
00
0/
05
16
x7
18
19
1:
0;
0<
0=
0>
0?
0@
0A
0B
0C
0D
0E
0F
0G
0H
0I
0J
0K
0L
0M
0N
0O
0P
0Q
0R
0S
0T
0U
0V
0W
0X
0Y
0Z
0[
0\
0]
0^
0_
0`
0a
0b
0c
0d
0e
0f
0g
0h
0i
0j
0k
0l
0m
0n
0o
0p
0q
0r
0s
0t
0u
0v
0w
0x
0y
0z
0{
0|
0}
$end
#30000
b1 !
1\
1w
1f
1m
1F
1L
1x
14
1.
#60000
b11 !
b1 "
b10 !
0\
1[
1O
1@
1o
1k
1p
1n
1Q
1(
1}
1X
1W
1V
1=
1>
1?
1K
1q
1u
1v
13
1'
1&
1%
0}
1l
1U
1T
1;
1<
1E
0K
0u
1r
03
1-
1$
1#
1z
1y
1t
1G
1H
1I
0v
1s
11
10
1/
0y
1}
1|
1J
1K
0H
00
13
12
1y
0t
0G
1H
10
0/
0}
0|
0z
0y
0H
0I
0J
0K
03
02
01
00
#90000
b11 !
1\
0k
0f
1]
0m
0F
0L
1e
04
0.
1}
0l
0E
1K
13
0-
1j
1D
1,
#120000
b111 !
b11 "
b101 !
b10 "
b100 !
1P
0\
0[
1^
0O
0@
0o
1k
1f
0]
1{
0e
1_
0(
0}
0K
0{
1e
0_
1d
03
1}
1l
0j
1|
1J
0D
1E
1K
0d
13
1-
0,
12
0|
1j
1i
1C
1D
0J
02
1,
1+
0i
0C
0+
#150000
b101 !
1\
1m
1F
1L
14
1.
#180000
b111 !
b11 "
b110 !
0\
1[
1O
1@
0k
1]
1(
0}
0X
0?
0K
0e
1_
03
0'
1}
0l
0E
1K
1d
13
0-
0j
0D
0,
1i
1C
1+
#210000
b111 !
1\
0w
1o
1k
0m
0F
0L
1{
04
0.
0}
1l
1E
0K
03
1-
1|
1J
12
#240000
b1111 !
b111 "
b1011 !
b101 "
b1001 !
b100 "
b1000 !
0P
1N
0\
0[
0^
1Z
0O
0@
0p
0o
0k
0f
0]
0q
0{
0x
1u
0d
1`
0(
1}
1K
1{
1x
1e
0_
0u
13
0}
0l
0i
0|
1z
1h
1B
1I
0J
0C
0E
0K
1d
0`
03
0-
0+
02
11
1*
1|
0z
1j
1D
0I
1J
12
01
1,
1i
0h
0B
1C
1+
0*
#270000
b1001 !
1\
1w
1f
1m
1F
1L
14
1.
#300000
b1011 !
b101 "
b1010 !
0\
1[
1O
1@
1o
1k
1p
1(
1}
1X
0W
0>
1?
1K
13
1'
0&
0}
1l
1E
0K
03
1-
#330000
b1011 !
1\
0k
0f
1]
0m
0F
0L
0e
1_
04
0.
1}
0l
0E
1K
0d
1`
13
0-
0j
0D
0,
0i
1h
1B
0C
0+
1*
#360000
b1111 !
b111 "
b1101 !
b110 "
b1100 !
1P
0\
0[
1^
0O
0@
0o
1k
1f
0]
0{
1q
1e
0(
0}
0K
1{
0q
0e
1u
03
1}
1l
1j
0|
0J
1D
1E
1K
0u
13
1-
1,
02
1|
0j
1z
1I
0D
1J
12
0,
11
0z
0I
01
#390000
b1101 !
1\
1m
1F
1L
14
1.
#420000
b1111 !
b111 "
b1110 !
0\
1[
1O
1@
0k
1]
1(
0}
0X
0?
0K
1e
03
0'
1}
0l
0E
1K
13
0-
1j
1D
1,
#450000
b1111 !
1\
0w
1o
1k
0m
0F
0L
0x
0{
1q
04
0.
0}
1l
1E
0K
1u
03
1-
0|
0J
02
1z
1I
11
#480000
b11111 !
b1111 "
b10111 !
b1011 "
b10011 !
b1001 "
b10001 !
b1000 "
b10000 !
0P
0N
1M
0\
0[
0^
0Z
1Y
0O
0@
0p
0o
0n
0k
0f
0]
0_
0r
1{
1x
1v
0(
1}
0h
1c
1A
0B
1K
0q
0{
0x
0u
1r
1g
0e
1d
0`
0v
13
0*
1)
0}
0l
1i
1|
1y
1H
1J
1C
0E
0K
1u
0r
1v
03
0-
1+
12
10
0|
0z
0y
0j
0c
0A
0D
0H
0I
0J
0v
0g
02
01
00
0,
0)
1z
1y
1H
1I
11
10
0y
1h
1B
0H
00
1*
#510000
b10001 !
1\
1w
1f
1m
1F
1L
1x
14
1.
#540000
b10011 !
b1001 "
b10010 !
0\
1[
1O
1@
1o
1k
1p
1n
1(
1}
1X
1W
0V
0=
1>
1?
1K
1q
0u
13
1'
1&
0%
0}
1l
1E
0K
1u
03
1-
0z
0I
01
1z
1I
11
#570000
b10011 !
1\
0k
0f
1]
0m
0F
0L
1e
04
0.
1}
0l
0E
1K
13
0-
1j
1D
1,
#600000
b10111 !
b1011 "
b10101 !
b1010 "
b10100 !
1P
0\
0[
1^
0O
0@
0o
1k
1f
0]
1{
0e
1_
0(
0}
0K
0{
1e
0_
0d
1`
03
1}
1l
0j
1|
1J
0D
1E
1K
1d
0`
13
1-
0,
12
0|
1j
0i
0h
1c
1A
0B
0C
1D
0J
1g
02
1,
0+
0*
1)
1h
0c
0j
0D
0A
1B
0g
1*
0)
0,
0h
1j
1i
1C
1D
0B
0*
1,
1+
1h
1B
1*
#630000
b10101 !
1\
1m
1F
1L
14
1.
#660000
b10111 !
b1011 "
b10110 !
0\
1[
1O
1@
0k
1]
1(
0}
0X
0?
0K
0e
1_
03
0'
1}
0l
0E
1K
0d
1`
13
0-
0j
0D
0,
0i
0h
1c
1A
0B
0C
1g
0+
0*
1)
1l
1j
1i
1C
1D
1E
1-
1,
1+
1h
1B
1*
#690000
b10111 !
1\
0w
1o
1k
0m
0l
0E
0F
0L
1{
04
0.
0-
0}
1l
1E
0K
03
1-
1|
1J
12
#720000
b11111 !
b1111 "
b11011 !
b1101 "
b11001 !
b1100 "
b11000 !
0P
1N
0\
0[
0^
1Z
0O
0@
0p
0o
0k
0f
0]
0q
0{
0x
0u
1r
1d
0(
1}
1K
1{
1x
1e
0_
1u
0r
1v
13
0}
0l
0j
0|
0z
0I
0J
0D
0E
0K
0d
0v
03
0-
0,
02
01
1|
1z
1y
1j
0i
0C
1D
1H
1I
1J
12
11
10
1,
0+
1i
0y
0H
1C
1+
00
#750000
b11001 !
1\
1w
1f
1m
1l
1E
1F
1L
14
1.
1-
0j
0D
0,
#780000
b11011 !
b1101 "
b11010 !
0\
1[
1O
1@
1o
1k
1p
1(
1}
1X
0W
0>
1?
1K
13
1'
0&
0}
0l
0E
0K
03
0-
#810000
b11011 !
1\
0k
0f
1]
0m
1l
1E
0F
0L
0e
1_
04
0.
1-
1}
0l
1j
1D
0E
1K
0g
1d
13
0-
1,
0j
0i
0C
0D
1g
0,
0+
0h
1i
1C
0B
0*
1+
1h
1B
1*
#840000
b11111 !
b1111 "
b11101 !
b1110 "
b11100 !
1P
0\
0[
1^
0O
0@
0o
1k
1f
0]
0{
1q
1e
0(
0}
0K
1{
0q
0e
0u
1r
03
1}
1l
0i
0|
0J
0C
1E
1K
1u
0r
1v
13
1-
0+
02
1|
1j
0z
0I
1D
1J
0v
12
1,
01
1z
1y
1H
1I
11
10
0y
0H
00
#870000
b11101 !
1\
1m
0l
0E
1F
1L
14
1.
0-
#900000
b11111 !
b1111 "
b11110 !
0\
1[
1O
1@
0k
1]
1(
0}
0X
0?
0K
1e
03
0'
1}
1l
1E
1K
13
1-
0j
0D
0,
#930000
b11111 !
1\
0w
1o
1k
0m
0l
0E
0F
0L
0x
0{
1q
04
0.
0-
0}
1l
1E
0K
0u
1r
03
1-
0|
0J
1v
02
0z
0I
01
1y
1H
10
#960000
b111111 !
b11111 "
b101111 !
b10111 "
b100111 !
b10011 "
b100011 !
b10001 "
b100001 !
b10000 "
b100000 !
0P
0N
0M
1S
0\
0[
0^
0Z
0Y
1a
0O
0@
0p
0o
0n
0k
0f
0]
0Q
0_
0`
0s
1{
1x
1b
0(
0U
1}
1t
1G
1K
0<
0q
0{
0x
1u
0r
0e
0v
1s
0d
0$
13
1/
0}
0l
1j
1U
0h
0t
1|
1z
0y
0H
1I
1J
0G
0B
1<
1D
0E
0K
0u
1v
0s
0g
03
0-
1,
1$
0*
0/
12
11
00
0|
0j
1t
1G
0D
0J
02
0,
1/
0z
1y
0t
1h
1B
0G
1H
0I
01
10
0/
1*
#990000
b100001 !
1\
1w
1f
1m
1l
1E
1F
1L
1x
1g
14
1.
1-
1j
1i
1C
1D
1,
1+
0h
0B
0*
