ComplementoDois/simulation/qsim/ComplementoDois.msim.vcd
$comment
	File created using the following command:
		vcd file ComplementoDois.msim.vcd -direction
$end
$date
	Tue Oct 28 18:41:07 2025
$end
$version
	ModelSim Version 2020.1
$end
$timescale
	1ps
$end

$scope module ComplementoDois_vlg_vec_tst $end
$var reg 1 ! E0 $end
$var reg 1 " E1 $end
$var reg 1 # E2 $end
$var reg 1 $ E3 $end
$var reg 1 % E4 $end
$var reg 1 & E5 $end
$var wire 1 ' O0 $end
$var wire 1 ( O1 $end
$var wire 1 ) O2 $end
$var wire 1 * O3 $end
$var wire 1 + O4 $end
$var wire 1 , O5 $end

$scope module i1 $end
$var wire 1 - gnd $end
$var wire 1 . vcc $end
$var wire 1 / unknown $end
$var tri1 1 0 devclrn $end
$var tri1 1 1 devpor $end
$var tri1 1 2 devoe $end
$var wire 1 3 O0~output_o $end
$var wire 1 4 O1~output_o $end
$var wire 1 5 O2~output_o $end
$var wire 1 6 O4~output_o $end
$var wire 1 7 O5~output_o $end
$var wire 1 8 O3~output_o $end
$var wire 1 9 E0~input_o $end
$var wire 1 : E1~input_o $end
$var wire 1 ; inst8|inst1~combout $end
$var wire 1 < E2~input_o $end
$var wire 1 = inst10|inst1~combout $end
$var wire 1 > E4~input_o $end
$var wire 1 ? E3~input_o $end
$var wire 1 @ inst12|inst2~combout $end
$var wire 1 A inst9|inst1~combout $end
$var wire 1 B E5~input_o $end
$var wire 1 C inst11|inst1~combout $end
$var wire 1 D inst12|inst1~combout $end
$upscope $end
$upscope $end
$enddefinitions $end
#0
$dumpvars
0!
0"
0#
0$
0%
0&
0'
0(
0)
0*
0+
0,
0-
1.
x/
10
11
12
03
04
05
06
07
08
09
0:
0;
0<
0=
0>
0?
0@
0A
0B
0C
0D
$end
#10000
1!
19
13
1@
1'
1D
1=
1;
14
15
18
1*
1)
1(
1C
1A
16
17
1,
1+
#20000
1"
0!
1:
09
03
0'
#30000
1!
19
13
1'
0;
04
0(
#40000
1#
0"
0!
1<
0:
09
03
0'
#50000
1!
19
13
1'
0=
1;
14
05
0)
1(
#60000
1"
0!
1:
09
03
0'
#70000
1!
19
13
1'
0;
04
0(
#80000
1$
0#
0"
0!
1?
0<
0:
09
03
0'
#90000
1!
19
13
1'
0D
1=
1;
14
15
08
0*
1)
1(
#100000
1"
0!
1:
09
03
0'
#110000
1!
19
13
1'
0;
04
0(
#120000
1#
0"
0!
1<
0:
09
03
0'
#130000
1!
19
13
1'
0=
1;
14
05
0)
1(
#140000
1"
0!
1:
09
03
0'
#150000
1!
19
13
1'
0;
04
0(
#160000
1%
0$
0#
0"
0!
1>
0?
0<
0:
09
03
0@
0'
0A
06
0+
1A
16
1+
#170000
1!
19
13
1@
1'
1D
1=
1;
14
15
18
1*
1)
1(
0A
06
0+
#180000
1"
0!
1:
09
03
0'
#190000
1!
19
13
1'
0;
04
0(
#200000
1#
0"
0!
1<
0:
09
03
0'
#210000
1!
19
13
1'
0=
1;
14
05
0)
1(
#220000
1"
0!
1:
09
03
0'
#230000
1!
19
13
1'
0;
04
0(
#240000
1$
0#
0"
0!
1?
0<
0:
09
03
0'
#250000
1!
19
13
1'
0D
1=
1;
14
15
08
0*
1)
1(
#260000
1"
0!
1:
09
03
0'
#270000
1!
19
13
1'
0;
04
0(
#280000
1#
0"
0!
1<
0:
09
03
0'
#290000
1!
19
13
1'
0=
1;
14
05
0)
1(
#300000
1"
0!
1:
09
03
0'
#310000
1!
19
13
1'
0;
04
0(
#320000
1&
0%
0$
0#
0"
0!
1B
0>
0?
0<
0:
09
03
0@
0'
0C
1A
16
07
0,
1+
1C
0A
06
17
1,
0+
#330000
1!
19
13
1@
1'
1D
1=
1;
14
15
18
1*
1)
1(
0C
1A
16
07
0,
1+
#340000
1"
0!
1:
09
03
0'
#350000
1!
19
13
1'
0;
04
0(
#360000
1#
0"
0!
1<
0:
09
03
0'
#370000
1!
19
13
1'
0=
1;
14
05
0)
1(
#380000
1"
0!
1:
09
03
0'
#390000
1!
19
13
1'
0;
04
0(
#400000
1$
0#
0"
0!
1?
0<
0:
09
03
0'
#410000
1!
19
13
1'
0D
1=
1;
14
15
08
0*
1)
1(
#420000
1"
0!
1:
09
03
0'
#430000
1!
19
13
1'
0;
04
0(
#440000
1#
0"
0!
1<
0:
09
03
0'
#450000
1!
19
13
1'
0=
1;
14
05
0)
1(
#460000
1"
0!
1:
09
03
0'
#470000
1!
19
13
1'
0;
04
0(
#480000
1%
0$
0#
0"
0!
1>
0?
0<
0:
09
03
0@
0'
0A
06
0+
1A
16
1+
#490000
1!
19
13
1@
1'
1D
1=
1;
14
15
18
1*
1)
1(
0A
06
0+
#500000
1"
0!
1:
09
03
0'
#510000
1!
19
13
1'
0;
04
0(
#520000
1#
0"
0!
1<
0:
09
03
0'
#530000
1!
19
13
1'
0=
1;
14
05
0)
1(
#540000
1"
0!
1:
09
03
0'
#550000
1!
19
13
1'
0;
04
0(
#560000
1$
0#
0"
0!
1?
0<
0:
09
03
0'
#570000
1!
19
13
1'
0D
1=
1;
14
15
08
0*
1)
1(
#580000
1"
0!
1:
09
03
0'
#590000
1!
19
13
1'
0;
04
0(
#600000
1#
0"
0!
1<
0:
09
03
0'
#610000
1!
19
13
1'
0=
1;
14
05
0)
1(
#620000
1"
0!
1:
09
03
0'
#630000
1!
19
13
1'
0;
04
0(
#640000
0&
0%
0$
0#
0"
0!
0B
0>
0?
0<
0:
09
03
0@
0'
1C
1A
16
17
1,
1+
0C
0A
06
07
0,
0+
#650000
1!
19
13
1@
1'
1D
1=
1;
14
15
18
1*
1)
1(
1C
1A
16
17
1,
1+
#660000
1"
0!
1:
09
03
0'
#670000
1!
19
13
1'
0;
04
0(
#680000
1#
0"
0!
1<
0:
09
03
0'
#690000
1!
19
13
1'
0=
1;
14
05
0)
1(
#700000
1"
0!
1:
09
03
0'
#710000
1!
19
13
1'
0;
04
0(
#720000
1$
0#
0"
0!
1?
0<
0:
09
03
0'
#730000
1!
19
13
1'
0D
1=
1;
14
15
08
0*
1)
1(
#740000
1"
0!
1:
09
03
0'
#750000
1!
19
13
1'
0;
04
0(
#760000
1#
0"
0!
1<
0:
09
03
0'
#770000
1!
19
13
1'
0=
1;
14
05
0)
1(
#780000
1"
0!
1:
09
03
0'
#790000
1!
19
13
1'
0;
04
0(
#800000
1%
0$
0#
0"
0!
1>
0?
0<
0:
09
03
0@
0'
0A
06
0+
1A
16
1+
#810000
1!
19
13
1@
1'
1D
1=
1;
14
15
18
1*
1)
1(
0A
06
0+
#820000
1"
0!
1:
09
03
0'
#830000
1!
19
13
1'
0;
04
0(
#840000
1#
0"
0!
1<
0:
09
03
0'
#850000
1!
19
13
1'
0=
1;
14
05
0)
1(
#860000
1"
0!
1:
09
03
0'
#870000
1!
19
13
1'
0;
04
0(
#880000
1$
0#
0"
0!
1?
0<
0:
09
03
0'
#890000
1!
19
13
1'
0D
1=
1;
14
15
08
0*
1)
1(
#900000
1"
0!
1:
09
03
0'
#910000
1!
19
13
1'
0;
04
0(
#920000
1#
0"
0!
1<
0:
09
03
0'
#930000
1!
19
13
1'
0=
1;
14
05
0)
1(
#940000
1"
0!
1:
09
03
0'
#950000
1!
19
13
1'
0;
04
0(
#960000
1&
0%
0$
0#
0"
0!
1B
0>
0?
0<
0:
09
03
0@
0'
0C
1A
16
07
0,
1+
1C
0A
06
17
1,
0+
#970000
1!
19
13
1@
1'
1D
1=
1;
14
15
18
1*
1)
1(
0C
1A
16
07
0,
1+
#980000
1"
0!
1:
09
03
0'
#990000
1!
19
13
1'
0;
04
0(
