Subtrator6bits/simulation/qsim/Subtrator6bits.msim.vcd
$comment
	File created using the following command:
		vcd file Subtrator6bits.msim.vcd -direction
$end
$date
	Wed Oct 29 11:38:54 2025
$end
$version
	ModelSim Version 2020.1
$end
$timescale
	1ps
$end

$scope module Subtrator6bits_vlg_vec_tst $end
$var reg 6 ! A [5:0] $end
$var reg 6 " B [5:0] $end
$var wire 1 # S [5] $end
$var wire 1 $ S [4] $end
$var wire 1 % S [3] $end
$var wire 1 & S [2] $end
$var wire 1 ' S [1] $end
$var wire 1 ( S [0] $end

$scope module i1 $end
$var wire 1 ) gnd $end
$var wire 1 * vcc $end
$var wire 1 + unknown $end
$var tri1 1 , devclrn $end
$var tri1 1 - devpor $end
$var tri1 1 . devoe $end
$var wire 1 / S[5]~output_o $end
$var wire 1 0 S[4]~output_o $end
$var wire 1 1 S[3]~output_o $end
$var wire 1 2 S[2]~output_o $end
$var wire 1 3 S[1]~output_o $end
$var wire 1 4 S[0]~output_o $end
$var wire 1 5 A[5]~input_o $end
$var wire 1 6 A[4]~input_o $end
$var wire 1 7 B[2]~input_o $end
$var wire 1 8 B[3]~input_o $end
$var wire 1 9 B[1]~input_o $end
$var wire 1 : B[0]~input_o $end
$var wire 1 ; inst1|inst12|inst2~combout $end
$var wire 1 < B[4]~input_o $end
$var wire 1 = inst1|inst10|inst2~combout $end
$var wire 1 > A[3]~input_o $end
$var wire 1 ? A[1]~input_o $end
$var wire 1 @ A[0]~input_o $end
$var wire 1 A inst|inst2|inst3~0_combout $end
$var wire 1 B inst1|inst8|inst2~combout $end
$var wire 1 C A[2]~input_o $end
$var wire 1 D inst|inst3|inst3~0_combout $end
$var wire 1 E inst|inst4|inst3~0_combout $end
$var wire 1 F inst|inst6|inst1~0_combout $end
$var wire 1 G B[5]~input_o $end
$var wire 1 H inst|inst6|inst1~1_combout $end
$var wire 1 I inst|inst5|inst1~combout $end
$var wire 1 J inst|inst4|inst1~combout $end
$var wire 1 K inst|inst3|inst1~combout $end
$var wire 1 L inst|inst2|inst1~combout $end
$var wire 1 M inst|inst|inst~combout $end
$upscope $end
$upscope $end
$enddefinitions $end
#0
$dumpvars
b0 !
b0 "
0(
0'
0&
0%
0$
0#
0)
1*
x+
1,
1-
1.
0/
00
01
02
03
04
05
06
07
08
09
0:
0;
0<
0=
0>
0?
0@
0A
0B
0C
0D
0E
0F
0G
0H
0I
0J
0K
0L
0M
$end
#30000
b100000 !
15
1H
1/
1#
#60000
b110000 !
b100000 "
b10000 !
1G
16
05
1I
10
1$
#90000
b110000 !
15
0H
0/
0#
#120000
b111000 !
b110000 "
b101000 !
b10000 "
b1000 !
1<
0G
1>
06
05
1F
1J
11
1%
1H
1/
1#
#150000
b101000 !
15
0H
0/
0#
#180000
b111000 !
b110000 "
b11000 !
1G
16
05
0F
0I
00
0$
1H
1/
1#
#210000
b111000 !
15
0H
0/
0#
#240000
b111100 !
b111000 "
b110100 !
b101000 "
b100100 !
b1000 "
b100 !
18
0<
0G
1C
0>
06
05
1;
1K
12
1F
1&
1I
10
1$
1H
1/
1#
#270000
b100100 !
15
0H
0/
0#
#300000
b110100 !
b101000 "
b10100 !
1G
16
05
0F
0I
00
0$
1H
1/
1#
#330000
b110100 !
15
0H
0/
0#
#360000
b111100 !
b111000 "
b101100 !
b11000 "
b1100 !
1<
0G
1>
06
05
1F
1E
0J
01
0%
1H
1I
10
1/
1#
1$
#390000
b101100 !
15
0H
0/
0#
#420000
b111100 !
b111000 "
b11100 !
1G
16
05
0F
0I
00
0$
1H
1/
1#
#450000
b111100 !
15
0H
0/
0#
#480000
b111110 !
b111100 "
b111010 !
b110100 "
b110010 !
b100100 "
b100010 !
b100 "
b10 !
17
08
0<
0G
1?
0C
0>
06
05
1=
0E
1L
13
1F
1'
1J
1I
10
11
1%
1$
1H
1/
1#
#510000
b100010 !
15
0H
0/
0#
#540000
b110010 !
b100100 "
b10010 !
1G
16
05
0F
0I
00
0$
1H
1/
1#
#570000
b110010 !
15
0H
0/
0#
#600000
b111010 !
b110100 "
b101010 !
b10100 "
b1010 !
1<
0G
1>
06
05
1F
1E
0J
01
0%
1H
1I
10
1/
1#
1$
#630000
b101010 !
15
0H
0/
0#
#660000
b111010 !
b110100 "
b11010 !
1G
16
05
0F
0I
00
0$
1H
1/
1#
#690000
b111010 !
15
0H
0/
0#
#720000
b111110 !
b111100 "
b110110 !
b101100 "
b100110 !
b1100 "
b110 !
18
0<
0G
1C
0>
06
05
0E
1D
0K
02
1F
0&
1I
1J
11
10
1$
1%
1H
1/
1#
#750000
b100110 !
15
0H
0/
0#
#780000
b110110 !
b101100 "
b10110 !
1G
16
05
0F
0I
00
0$
1H
1/
1#
#810000
b110110 !
15
0H
0/
0#
#840000
b111110 !
b111100 "
b101110 !
b11100 "
b1110 !
1<
0G
1>
06
05
1F
1E
0J
01
0%
1H
1I
10
1/
1#
1$
#870000
b101110 !
15
0H
0/
0#
#900000
b111110 !
b111100 "
b11110 !
1G
16
05
0F
0I
00
0$
1H
1/
1#
#930000
b111110 !
15
0H
0/
0#
#960000
b111111 !
b111110 "
b111101 !
b111010 "
b111001 !
b110010 "
b110001 !
b100010 "
b100001 !
b10 "
b1 !
19
07
08
0<
0G
1@
0?
0C
0>
06
05
1B
0D
1M
14
0E
1(
1K
1J
11
12
1F
1&
1%
1I
10
1$
1H
1/
1#
#990000
b100001 !
15
0H
0/
0#
