Somador/simulation/qsim/Somador.msim.vcd
$comment
	File created using the following command:
		vcd file Somador.msim.vcd -direction
$end
$date
	Thu Oct 09 09:41:45 2025
$end
$version
	ModelSim Version 2020.1
$end
$timescale
	1ps
$end

$scope module Somador_vlg_vec_tst $end
$var reg 1 ! A $end
$var reg 1 " B $end
$var reg 1 # cin $end
$var wire 1 $ C $end
$var wire 1 % S $end

$scope module i1 $end
$var wire 1 & gnd $end
$var wire 1 ' vcc $end
$var wire 1 ( unknown $end
$var tri1 1 ) devclrn $end
$var tri1 1 * devpor $end
$var tri1 1 + devoe $end
$var wire 1 , C~output_o $end
$var wire 1 - S~output_o $end
$var wire 1 . B~input_o $end
$var wire 1 / A~input_o $end
$var wire 1 0 cin~input_o $end
$var wire 1 1 inst3~0_combout $end
$var wire 1 2 inst1~0_combout $end
$upscope $end
$upscope $end
$enddefinitions $end
#0
$dumpvars
0!
0"
0#
0$
0%
0&
1'
x(
1)
1*
1+
0,
0-
0.
0/
00
01
02
$end
#45000
1!
1/
12
1-
1%
#90000
1"
0!
1.
0/
#135000
1!
1/
02
11
1,
0-
0%
1$
#180000
0"
0!
0.
0/
01
0,
0$
#225000
1!
1/
12
1-
1%
#270000
1"
0!
1.
0/
#315000
1!
1/
02
11
1,
0-
0%
1$
#360000
0"
0!
0.
0/
01
0,
0$
#405000
1!
1/
12
1-
1%
#450000
1"
0!
1.
0/
#495000
1!
1/
02
11
1,
0-
0%
1$
#500000
1#
10
12
1-
1%
#540000
0"
0!
0.
0/
01
0,
0$
#585000
1!
1/
02
11
1,
0-
0%
1$
#630000
1"
0!
1.
0/
#675000
1!
1/
12
1-
1%
#720000
0"
0!
0.
0/
01
0,
0$
#765000
1!
1/
02
11
1,
0-
0%
1$
#810000
1"
0!
1.
0/
#855000
1!
1/
12
1-
1%
#900000
0"
0!
0.
0/
01
0,
0$
#945000
1!
1/
02
11
1,
0-
0%
1$
#990000
1"
0!
1.
0/
