AND/simulation/qsim/opAND.msim.vcd
$comment
	File created using the following command:
		vcd file opAND.msim.vcd -direction
$end
$date
	Thu Oct 30 09:27:40 2025
$end
$version
	ModelSim Version 2020.1
$end
$timescale
	1ps
$end

$scope module opAND_vlg_vec_tst $end
$var reg 6 ! A [5:0] $end
$var reg 6 " B [5:0] $end
$var wire 1 # OUT [5] $end
$var wire 1 $ OUT [4] $end
$var wire 1 % OUT [3] $end
$var wire 1 & OUT [2] $end
$var wire 1 ' OUT [1] $end
$var wire 1 ( OUT [0] $end

$scope module i1 $end
$var wire 1 ) gnd $end
$var wire 1 * vcc $end
$var wire 1 + unknown $end
$var tri1 1 , devclrn $end
$var tri1 1 - devpor $end
$var tri1 1 . devoe $end
$var wire 1 / OUT[5]~output_o $end
$var wire 1 0 OUT[4]~output_o $end
$var wire 1 1 OUT[3]~output_o $end
$var wire 1 2 OUT[2]~output_o $end
$var wire 1 3 OUT[1]~output_o $end
$var wire 1 4 OUT[0]~output_o $end
$var wire 1 5 B[5]~input_o $end
$var wire 1 6 A[5]~input_o $end
$var wire 1 7 inst6~combout $end
$var wire 1 8 A[4]~input_o $end
$var wire 1 9 B[4]~input_o $end
$var wire 1 : inst5~combout $end
$var wire 1 ; A[3]~input_o $end
$var wire 1 < B[3]~input_o $end
$var wire 1 = inst4~combout $end
$var wire 1 > A[2]~input_o $end
$var wire 1 ? B[2]~input_o $end
$var wire 1 @ inst2~combout $end
$var wire 1 A B[1]~input_o $end
$var wire 1 B A[1]~input_o $end
$var wire 1 C inst1~combout $end
$var wire 1 D B[0]~input_o $end
$var wire 1 E A[0]~input_o $end
$var wire 1 F inst~combout $end
$upscope $end
$upscope $end
$enddefinitions $end
#0
$dumpvars
b0 !
b0 "
0(
0'
0&
0%
0$
0#
0)
1*
x+
1,
1-
1.
0/
00
01
02
03
04
05
06
07
08
09
0:
0;
0<
0=
0>
0?
0@
0A
0B
0C
0D
0E
0F
$end
#30000
b1 !
1E
#60000
b11 !
b1 "
b10 !
1D
0E
1B
#90000
b11 !
1E
1F
14
1(
#120000
b111 !
b11 "
b101 !
b10 "
b100 !
0D
1A
0E
0B
1>
0F
04
0(
#150000
b101 !
1E
#180000
b111 !
b11 "
b110 !
1D
0E
1B
1C
13
1'
#210000
b111 !
1E
1F
14
1(
#240000
b1111 !
b111 "
b1011 !
b101 "
b1001 !
b100 "
b1000 !
0D
0A
1?
0E
0B
0>
1;
0F
0C
03
04
0(
0'
#270000
b1001 !
1E
#300000
b1011 !
b101 "
b1010 !
1D
0E
1B
#330000
b1011 !
1E
1F
14
1(
#360000
b1111 !
b111 "
b1101 !
b110 "
b1100 !
0D
1A
0E
0B
1>
0F
1@
12
04
0(
1&
#390000
b1101 !
1E
#420000
b1111 !
b111 "
b1110 !
1D
0E
1B
1C
13
1'
#450000
b1111 !
1E
1F
14
1(
#480000
b11111 !
b1111 "
b10111 !
b1011 "
b10011 !
b1001 "
b10001 !
b1000 "
b10000 !
0D
0A
0?
1<
0E
0B
0>
0;
18
0F
0C
0@
02
03
04
0(
0'
0&
#510000
b10001 !
1E
#540000
b10011 !
b1001 "
b10010 !
1D
0E
1B
#570000
b10011 !
1E
1F
14
1(
#600000
b10111 !
b1011 "
b10101 !
b1010 "
b10100 !
0D
1A
0E
0B
1>
0F
04
0(
#630000
b10101 !
1E
#660000
b10111 !
b1011 "
b10110 !
1D
0E
1B
1C
13
1'
#690000
b10111 !
1E
1F
14
1(
#720000
b11111 !
b1111 "
b11011 !
b1101 "
b11001 !
b1100 "
b11000 !
0D
0A
1?
0E
0B
0>
1;
0F
0C
1=
11
03
04
0(
0'
1%
#750000
b11001 !
1E
#780000
b11011 !
b1101 "
b11010 !
1D
0E
1B
#810000
b11011 !
1E
1F
14
1(
#840000
b11111 !
b1111 "
b11101 !
b1110 "
b11100 !
0D
1A
0E
0B
1>
0F
1@
12
04
0(
1&
#870000
b11101 !
1E
#900000
b11111 !
b1111 "
b11110 !
1D
0E
1B
1C
13
1'
#930000
b11111 !
1E
1F
14
1(
#960000
b111111 !
b11111 "
b101111 !
b10111 "
b100111 !
b10011 "
b100011 !
b10001 "
b100001 !
b10000 "
b100000 !
0D
0A
0?
0<
19
0E
0B
0>
0;
08
16
0F
0C
0@
0=
01
02
03
04
0(
0'
0&
0%
#990000
b100001 !
1E
