SomadorSeisBits/simulation/qsim/SomadorSeisBits.msim.vcd
$comment
	File created using the following command:
		vcd file SomadorSeisBits.msim.vcd -direction
$end
$date
	Tue Oct 28 19:51:59 2025
$end
$version
	ModelSim Version 2020.1
$end
$timescale
	1ps
$end

$scope module SomadorSeisBits_vlg_vec_tst $end
$var reg 6 ! A [5:0] $end
$var reg 6 " B [5:0] $end
$var wire 1 # PRIMEIRO $end
$var wire 1 $ QUARTO $end
$var wire 1 % QUINTO $end
$var wire 1 & SEGUNDO $end
$var wire 1 ' SINAL $end
$var wire 1 ( TERCEIRO $end

$scope module i1 $end
$var wire 1 ) gnd $end
$var wire 1 * vcc $end
$var wire 1 + unknown $end
$var tri1 1 , devclrn $end
$var tri1 1 - devpor $end
$var tri1 1 . devoe $end
$var wire 1 / PRIMEIRO~output_o $end
$var wire 1 0 SEGUNDO~output_o $end
$var wire 1 1 TERCEIRO~output_o $end
$var wire 1 2 QUARTO~output_o $end
$var wire 1 3 QUINTO~output_o $end
$var wire 1 4 SINAL~output_o $end
$var wire 1 5 B[0]~input_o $end
$var wire 1 6 A[0]~input_o $end
$var wire 1 7 inst|inst~combout $end
$var wire 1 8 B[1]~input_o $end
$var wire 1 9 A[1]~input_o $end
$var wire 1 : inst2|inst1~0_combout $end
$var wire 1 ; B[2]~input_o $end
$var wire 1 < A[2]~input_o $end
$var wire 1 = inst2|inst3~0_combout $end
$var wire 1 > inst3|inst1~0_combout $end
$var wire 1 ? A[3]~input_o $end
$var wire 1 @ inst3|inst3~0_combout $end
$var wire 1 A B[3]~input_o $end
$var wire 1 B inst4|inst1~combout $end
$var wire 1 C inst4|inst3~0_combout $end
$var wire 1 D B[4]~input_o $end
$var wire 1 E A[4]~input_o $end
$var wire 1 F inst5|inst1~combout $end
$var wire 1 G B[5]~input_o $end
$var wire 1 H A[5]~input_o $end
$var wire 1 I inst6|inst1~0_combout $end
$var wire 1 J inst6|inst1~combout $end
$upscope $end
$upscope $end
$enddefinitions $end
#0
$dumpvars
b0 !
b0 "
0#
0$
0%
0&
0'
0(
0)
1*
x+
1,
1-
1.
0/
00
01
02
03
04
05
06
07
08
09
0:
0;
0<
0=
0>
0?
0@
0A
0B
0C
0D
0E
0F
0G
0H
0I
0J
$end
#55000
b1 !
16
17
1/
1#
#60000
b1 "
15
1:
07
0/
10
1&
0#
#110000
b11 !
b10 !
06
19
17
1/
1#
#120000
b11 "
b10 "
05
18
1=
0:
07
0/
00
0&
0#
1>
11
1(
#165000
b11 !
16
17
1/
1#
#180000
b11 "
15
1:
07
0/
10
1&
0#
#220000
b111 !
b101 !
b100 !
06
09
1<
0=
1@
17
0>
01
1/
0@
1#
0(
1>
1B
12
11
1(
1$
0B
02
0$
#240000
b111 "
b101 "
b100 "
05
08
1;
1@
0:
07
0>
01
0/
00
0&
0#
0(
1B
12
1$
#275000
b101 !
16
17
1/
1#
#300000
b101 "
15
1:
07
0/
10
1&
0#
#330000
b111 !
b110 !
06
19
17
1/
1#
#360000
b111 "
b110 "
05
18
1=
0:
07
0/
00
0&
0#
1>
11
1(
#385000
b111 !
16
17
1/
1#
#420000
b111 "
15
1:
07
0/
10
1&
0#
#440000
b1111 !
b1011 !
b1001 !
b1000 !
06
09
0<
1?
0=
1C
17
0>
0B
02
01
1/
0@
1#
0(
0$
1>
1F
13
11
0C
1(
1%
1B
12
1$
0F
03
0%
#480000
b1111 "
b1011 "
b1001 "
b1000 "
05
08
0;
1A
1C
0:
07
0>
0B
02
01
0/
00
0&
0#
0(
0$
1F
13
1%
#495000
b1001 !
16
17
1/
1#
#540000
b1001 "
15
1:
07
0/
10
1&
0#
#550000
b1011 !
b1010 !
06
19
17
1/
1#
#600000
b1011 "
b1010 "
05
18
1=
0:
07
0/
00
0&
0#
1>
11
1(
#605000
b1011 !
16
17
1/
1#
#660000
b1111 !
b1101 !
b1011 "
b1100 !
15
06
09
1<
0=
1@
1:
0>
01
10
0@
1&
0(
1>
1B
12
11
1(
1$
0B
02
0$
#715000
b1101 !
16
1=
0:
07
0/
00
1@
0&
0#
0>
01
0(
1B
12
1$
#720000
b1111 "
b1101 "
b1100 "
05
08
1;
0=
17
1>
11
1/
1#
1(
0>
01
0(
#770000
b1111 !
b1110 !
06
19
1:
07
0/
10
1&
0#
#780000
b1101 "
15
17
1/
1#
#825000
b1111 !
16
1=
0:
07
0/
00
0&
0#
1>
11
1(
#840000
b1111 "
b1110 "
05
18
17
1/
1#
#880000
b11111 !
b10111 !
b10011 !
b10001 !
b10000 !
06
09
0<
0?
1E
0=
1:
07
0>
0B
1J
0F
03
14
02
01
0/
10
0@
1&
0#
0(
0$
1'
0%
1>
11
0C
1(
1B
12
1$
0J
1F
13
04
0'
1%
#882954
b0 !
0E
0F
03
0%
#900000
b1111 "
15
17
1/
1#
#960000
b111 "
b11 "
b1 "
b0 "
05
08
0;
0A
0:
07
0>
0B
02
01
0/
00
0&
0#
0(
0$
